{
  "project_info": {
    "project_number": "610495013805",
    "firebase_url": "https://fir-autenticacao-f8c69.firebaseio.com",
    "project_id": "fir-autenticacao-f8c69",
    "storage_bucket": "fir-autenticacao-f8c69.appspot.com"
  },
  "client": [
    {
      "client_info": {
        "mobilesdk_app_id": "1:610495013805:android:6646eaf083edb0f6",
        "android_client_info": {
          "package_name": "com.example.firebaseautenticacao"
        }
      },
      "oauth_client": [
        {
          "client_id": "610495013805-715j5954nttohbbrmd1458rrh56g1c1o.apps.googleusercontent.com",
          "client_type": 1,
          "android_info": {
            "package_name": "com.example.firebaseautenticacao",
            "certificate_hash": "373d02b1f946f0dd2af54c2160a8a4f5879c2026"
          }
        },
        {
          "client_id": "610495013805-hr909oqhh4l97h3f4lb18atm1jl6jphm.apps.googleusercontent.com",
          "client_type": 3
        }
      ],
      "api_key": [
        {
          "current_key": "AIzaSyDTOJL_u8H1Q-Y-HeKA83dMSCfSP2TApCg"
        }
      ],
      "services": {
        "analytics_service": {
          "status": 1
        },
        "appinvite_service": {
          "status": 2,
          "other_platform_oauth_client": [
            {
              "client_id": "610495013805-hr909oqhh4l97h3f4lb18atm1jl6jphm.apps.googleusercontent.com",
              "client_type": 3
            }
          ]
        },
        "ads_service": {
          "status": 2
        }
      }
    }
  ],
  "configuration_version": "1"
}